Capítulo 6 Análisis Exploratorio de Datos | Análisis exploratorio e inferencial
…
tabla_cat <- map_dfr(vars_cat, function(v) {
  datos %>%
    count(.data[[v]], name = "Frecuencia") %>%
    mutate(
      Porcentaje = round(Frecuencia / sum(Frecuencia) * 100, 2),
      Variable = v,
      Categoria = as.character(.data[[v]])
    ) %>%
    select(Variable, Categoria, Frecuencia, Porcentaje)
})

tabla_cat

## # A tibble: 41 × 4
##    Variable    Categoria Frecuencia Porcentaje
##    <chr>       <chr>          <int>      <dbl>
##  1 tipo_equipo A1               287      72.7 
##  2 tipo_equipo B2                45      11.4 
##  3 tipo_equipo C3                 8       2.03
##  4 tipo_equipo D4                55      13.9 
##  5 equipo_id   M02               45      11.4 
##  6 equipo_id   M04                4       1.01
##  7 equipo_id   M05               31       7.85
##  8 equipo_id   M08               34       8.61
##  9 equipo_id   M09               40      10.1 
## 10 equipo_id   M11                4       1.01
## # ℹ 31 more rows
…
